<?xml version="1.0" encoding="UTF-8"?>
<svg width="20px" height="20px" viewBox="0 0 20 20" version="1.1" xmlns="http://www.w3.org/2000/svg" xmlns:xlink="http://www.w3.org/1999/xlink">
    <!-- Generator: Sketch 50.2 (55047) - http://www.bohemiancoding.com/sketch -->
    <title>not_interested</title>
    <desc>Created with Sketch.</desc>
    <defs></defs>
    <g id="Page-1" stroke="none" stroke-width="1" fill="none" fill-rule="evenodd" font-family="MaterialIcons-Regular, Material Icons" font-size="24" font-weight="normal">
        <text id="not_interested" fill="#FFFFFF">
            <tspan x="-2" y="22">not_interested</tspan>
        </text>
    </g>
</svg>